<?xml version="1.0" encoding="UTF-8" ?>
<svg width="128" height="128">
  <line x1="64" y1="20" x2="64" y2="80" stroke-linecap="round" stroke="black" stroke-width="18" />
  <circle cx="64" cy="108" r="10" stroke="none" fill="black" />
</svg>
