<?xml version="1.0" encoding="UTF-8" ?>
<svg width="128" height="128">
  <line x1="16" y1="64" x2="112" y2="64" stroke-linecap="round" stroke="black" stroke-width="12" />
  <circle cx="64" cy="32" r="12" stroke="none" fill="black" />
  <circle cx="64" cy="96" r="12" stroke="none" fill="black" />
</svg>
